[
    "Abiy Addi",
    "Abomsa",
    "Adama (Nazareth/Nazret)",
    "Adaba",
    "Addis Ababa",
    "Addis Alem (Ejersa)",
    "Addis Zemen",
    "Adet",
    "Adigrat",
    "Adwa",
    "Agaro",
    "Akaki",
    "Alaba (Kulito, Quliito)",
    "AlETA WONDO",
    "Amaro",
    "Amba Mariam",
    "Ambo",
    "Angacha",
    "Ankober",
    "Arba Minch",
    "Arboye",
    "Asaita",
    "Asella",
    "Asosa",
    "Awasa",
    "Awash",
    "Axum",
    "Azezo",
    "Alamata",
    "Alem Ketema",
    "Aykel",
    "Babille",
    "Baco",
    "Badme",
    "Bahir Dar",
    "Bati",
    "Bedele",
    "Beica",
    "Bekoji",
    "Bichena",
    "Bishoftu(Debre Zeit)",
    "Bonga",
    "Burie Damote",
    "Butajira",
    "Chiro",
    "Chimdesa",
    "Chelenko",
    "Chencha",
    "Chuahit",
    "Dessie",
    "Dabat",
    "Dangila",
    "Debarq",
    "Debre Berhan",
    "Debre Marqos",
    "Debre Tabor",
    "Debre Werq",
    "Debre Zebit",
    "Dejen",
    "Delgi",
    "Dembidolo",
    "Deneba",
    "Dessie (Dese)",
    "Dila",
    "DilYibza (Beyeda)",
    "Dimtu (Wolaita)",
    "Dire Dawa",
    "Dagax buur",
    "Dirree Incinnii",
    "Dodola",
    "Dolo Bay",
    "Dolo Odo",
    "Durame",
    "Dalocha",
    "Dukem",
    "Danan",
    "Ejaji",
    "Elidar",
    "Enewari",
    "Estie",
    "Andabet",
    "Finicha'a",
    "Fiche",
    "Finote Selam",
    "Freweyni",
    "Gondar",
    "Gambela",
    "Gelemso",
    "Ghimbi",
    "Ginir",
    "Goba",
    "Gobiyere",
    "Gode",
    "Gololcha",
    "Gondar",
    "Gongoma",
    "Gore",
    "Gorgora",
    "Harar",
    "Harar (or Harer)",
    "Hafatissa",
    "Harorisa",
    "Hawassa",
    "Hayq",
    "Holeta",
    "Hosaena",
    "Humera",
    "Huruta",
    "Hadero",
    "Imi",
    "Jijiga",
    "Jimma",
    "Jinka",
    "Jaragedo",
    "Kabri Dar",
    "Kebri Mangest",
    "Kobo",
    "Kombolcha",
    "Konso",
    "Kulubi",
    "Kurmuk",
    "Lalibela",
    "Limmu Genet",
    "Lante (Ocholo)",
    "Lante (Ommo)",
    "Maji",
    "Maqora",
    "Maychew",
    "Mek'ele",
    "Mersa",
    "Mendi",
    "Metemma",
    "Metu",
    "Mizan Teferi",
    "Mojo",
    "Mota",
    "Moyale",
    "Negash",
    "Negele Boran",
    "Nejo",
    "Nekemte",
    "Robe, Bale",
    "Seka",
    "Shashamane",
    "Shaamboo",
    "Sheraro",
    "Shire (or Inda Selassie)",
    "Shilavo",
    "Sodo (Wolaita Sodo)",
    "Sodore",
    "Sokoru",
    "Sekota",
    "Tefki",
    "Tenta",
    "Tippi",
    "Tiya",
    "Tullu Milki",
    "Turmi",
    "Togo-Wochale",
    "Tulu bolo",
    "Wacca",
    "Waliso",
    "Walwal",
    "Werder",
    "Wereta",
    "Woldia",
    "Wolaita Sodo (Sodo)",
    "Wolleka",
    "Worabe",
    "Wuchale",
    "Wukro",
    "washera",
    "Yabelo",
    "Yeha",
    "Yirga Alem",
    "Ziway"
]